{
    "name": "com.fdt.units.editor",
    "references": [
        "com.fdt.units",
        "com.fdt.common",
        "com.fdt.common.editor"
    ],
    "optionalUnityReferences": [],
    "includePlatforms": [
        "Editor"
    ],
    "excludePlatforms": [],
    "allowUnsafeCode": false,
    "overrideReferences": false,
    "precompiledReferences": [],
    "autoReferenced": true,
    "defineConstraints": [],
    "versionDefines": []
}